Chapter 10 Time Series Analysis of Infectious Disease Data | Statistical Learning of Infectious Disease Data Analytics
…
The Forecasting: Principles and Practices online textbook provides an introduction to time series forecasting using fable.

10.2 Time series plots

Time series is a set of observations recorded sequentially. The first thing to do in any time series analysis task is to plot the data. Graphs enable many features of the data to be visualized, including patterns, unusual observations, changes over time, and relationships between variables. The features that are seen in plots of the data must then be incorporated, as much as possible, into the forecasting methods to be used. Just as the type of data determines what forecasting method to use, it also determines what graphs are appropriate. But before we produce graphs, we need to set up our time series in R.

10.2.1 “tsibble” objects

A time series can be thought of as a list of numbers, along with some information about what times those numbers were recorded. This information can be stored as a “tsibble” object in R.

Take the state.long data for example,

state.long

## # A tibble: 15,925 x 7
##    State  Region Division      pop DATE       Infected Death
##    <fct>  <fct>  <fct>       <int> <date>        <int> <int>
##  1 Alaba… South  East Sout… 4.89e6 2020-12-11   288775  4086
##  2 Alaba… South  East Sout… 4.89e6 2020-12-10   284922  4034
##  3 Alaba… South  East Sout… 4.89e6 2020-12-09   280187  3985
##  4 Alaba… South  East Sout… 4.89e6 2020-12-08   276665  3940
##  5 Alaba… South  East Sout… 4.89e6 2020-12-07   272228  3891
##  6 Alaba… South  East Sout… 4.89e6 2020-12-06   269877  3888
##  7 Alaba… South  East Sout… 4.89e6 2020-12-05   267589  3876
##  8 Alaba… South  East Sout… 4.89e6 2020-12-04   264199  3831
##  9 Alaba… South  East Sout… 4.89e6 2020-12-03   260359  3776
## 10 Alaba… South  East Sout… 4.89e6 2020-12-02   256828  3711
## # … with 15,915 more rows

We can turn this into a “tsibble” object using the as_tsibble() function:

state.ts <- as_tsibble(state.long, key = State) 
## Using `DATE` as index variable.
state.ts
## # A tsibble: 15,925 x 7 [1D]
## # Key:       State [49]
##    State  Region Division      pop DATE       Infected Death
##    <fct>  <fct>  <fct>       <int> <date>        <int> <int>
##  1 Alaba… South  East Sout… 4.89e6 2020-01-22        0     0
##  2 Alaba… South  East Sout… 4.89e6 2020-01-23        0     0
##  3 Alaba… South  East Sout… 4.89e6 2020-01-24        0     0
##  4 Alaba… South  East Sout… 4.89e6 2020-01-25        0     0
##  5 Alaba… South  East Sout… 4.89e6 2020-01-26        0     0
##  6 Alaba… South  East Sout… 4.89e6 2020-01-27        0     0
##  7 Alaba… South  East Sout… 4.89e6 2020-01-28        0     0
##  8 Alaba… South  East Sout… 4.89e6 2020-01-29        0     0
##  9 Alaba… South  East Sout… 4.89e6 2020-01-30        0     0
## 10 Alaba… South  East Sout… 4.89e6 2020-01-31        0     0
## # … with 15,915 more rows
…
state.ts <- as_tsibble(state.long, key = State) %>%
  group_by(State) %>%
  mutate(Infected = Infected/1000) %>%
  mutate(YDA_Infected = lag(Infected, order_by = DATE)) %>%
  mutate(YDA_Death = lag(Death, order_by = DATE)) %>%
  mutate(Y.Infected = Infected - YDA_Infected) %>%
  mutate(Y.Death = Death - YDA_Death) %>%
  dplyr::filter(!is.na(Y.Infected)) %>%
  dplyr::filter(!is.na(Y.Death)) %>%
  dplyr::select(-c(YDA_Infected, YDA_Death))
## Using `DATE` as index variable.

state.ts 
## # A tsibble: 15,876 x 9 [1D]
## # Key:       State [49]
## # Groups:    State [49]
##    State Region Division    pop DATE       Infected Death
##    <fct> <fct>  <fct>     <int> <date>        <dbl> <int>
##  1 Alab… South  East So… 4.89e6 2020-01-23        0     0
##  2 Alab… South  East So… 4.89e6 2020-01-24        0     0
##  3 Alab… South  East So… 4.89e6 2020-01-25        0     0
##  4 Alab… South  East So… 4.89e6 2020-01-26        0     0
##  5 Alab… South  East So… 4.89e6 2020-01-27        0     0
##  6 Alab… South  East So… 4.89e6 2020-01-28        0     0
##  7 Alab… South  East So… 4.89e6 2020-01-29        0     0
##  8 Alab… South  East So… 4.89e6 2020-01-30        0     0
##  9 Alab… South  East So… 4.89e6 2020-01-31        0     0
## 10 Alab… South  East So… 4.89e6 2020-02-01        0     0
## # … with 15,866 more rows, and 2 more variables:
## #   Y.Infected <dbl>, Y.Death <int>

This tsibble use the mutate() to create two extra variables: Y.Infected and Y.Death, which are the daily new infected count and the daily new death count for each state.

We can use the filter() function to extract the data for the state of Florida, for example:

Florida.ts <- state.ts %>%
  dplyr::filter(State == "Florida")

Next we can simplify the resulting object by selecting five variables we will need in subsequent analysis.

Florida.ts <- Florida.ts %>% 
  dplyr::select(Infected, Death, Y.Infected, Y.Death)
## Adding missing grouping variables: `State`
Florida.ts
## # A tsibble: 324 x 6 [1D]
## # Key:       State [1]
## # Groups:    State [1]
##    State   Infected Death Y.Infected Y.Death DATE      
##    <fct>      <dbl> <int>      <dbl>   <int> <date>    
##  1 Florida        0     0          0       0 2020-01-23
##  2 Florida        0     0          0       0 2020-01-24
##  3 Florida        0     0          0       0 2020-01-25
##  4 Florida        0     0          0       0 2020-01-26
##  5 Florida        0     0          0       0 2020-01-27
##  6 Florida        0     0          0       0 2020-01-28
##  7 Florida        0     0          0       0 2020-01-29
##  8 Florida        0     0          0       0 2020-01-30
##  9 Florida        0     0          0       0 2020-01-31
## 10 Florida        0     0          0       0 2020-02-01
## # … with 314 more rows
…
Figure 10.19: Two weeks ahead forecast of the daily death count for Florida using the extended exponential smoothing method with trend and seasonality components.

Residual diagnostics

The fitted values and residuals from a model can be obtained using the augment() function. In the above example, we saved the fitted models as beer_fit. So we can simply apply augment() to this object to compute the fitted values and residuals for all models.

augment(death_lmfit)

## # A tsibble: 310 x 7 [1D]
## # Key:       State, .model [1]
##    State  .model    DATE       Y.Death .fitted .resid .innov
##    <fct>  <chr>     <date>       <int>   <dbl>  <dbl>  <dbl>
##  1 Flori… TSLM(Y.D… 2020-01-23       0    2.95  -2.95  -2.95
##  2 Flori… TSLM(Y.D… 2020-01-24       0    3.32  -3.32  -3.32
##  3 Flori… TSLM(Y.D… 2020-01-25       0    3.68  -3.68  -3.68
##  4 Flori… TSLM(Y.D… 2020-01-26       0    4.05  -4.05  -4.05
##  5 Flori… TSLM(Y.D… 2020-01-27       0    4.41  -4.41  -4.41
##  6 Flori… TSLM(Y.D… 2020-01-28       0    4.78  -4.78  -4.78
##  7 Flori… TSLM(Y.D… 2020-01-29       0    5.14  -5.14  -5.14
##  8 Flori… TSLM(Y.D… 2020-01-30       0    5.50  -5.50  -5.50
##  9 Flori… TSLM(Y.D… 2020-01-31       0    5.87  -5.87  -5.87
## 10 Flori… TSLM(Y.D… 2020-02-01       0    6.23  -6.23  -6.23
## # … with 300 more rows
…
