Chapter 4 Data Visualization with ggplot2 | Statistical Learning of Infectious Disease Data Analytics
…
4.5.1 Histogram

The histogram is an important tool to summarize the range and frequency of observations. Here we plot the histogram of log daily new infected cases counts using using geom_histogram. We can adjust the option binwidth to control the widths of the bins.

# Prepare the daily new Infected for each state 
# in the period 2020-11-12 to 2020-12-11
df <- slid::state.long %>% 
  dplyr::filter(DATE <= '2020-12-11' & DATE > '2020-11-11') %>%
  group_by(State) %>% # Group by State
  mutate(Y.Infected = 
           c(Infected[-length(Infected)] - Infected[-1], 0)) 
df

## # A tibble: 1,470 x 8
## # Groups:   State [49]
##    State Region Division    pop DATE       Infected Death
##    <fct> <fct>  <fct>     <int> <date>        <int> <int>
##  1 Alab… South  East So… 4.89e6 2020-12-11   288775  4086
##  2 Alab… South  East So… 4.89e6 2020-12-10   284922  4034
##  3 Alab… South  East So… 4.89e6 2020-12-09   280187  3985
##  4 Alab… South  East So… 4.89e6 2020-12-08   276665  3940
##  5 Alab… South  East So… 4.89e6 2020-12-07   272228  3891
##  6 Alab… South  East So… 4.89e6 2020-12-06   269877  3888
##  7 Alab… South  East So… 4.89e6 2020-12-05   267589  3876
##  8 Alab… South  East So… 4.89e6 2020-12-04   264199  3831
##  9 Alab… South  East So… 4.89e6 2020-12-03   260359  3776
## 10 Alab… South  East So… 4.89e6 2020-12-02   256828  3711
## # … with 1,460 more rows, and 1 more variable:
## #   Y.Infected <dbl>
…
##        long      lat group order   state
## 1 -87.46201 30.38968     1     1 alabama
## 2 -87.48493 30.37249     1     2 alabama
## 3 -87.52503 30.37249     1     3 alabama

state.long.shape <- slid::state.long %>% 
  mutate('state' = tolower(slid::state.long$State)) %>%
  right_join(MainStates, by = 'state') %>%
  select(-state)
state.long.shape

## # A tibble: 5,049,525 x 11
##    State Region Division    pop DATE       Infected Death
##    <fct> <fct>  <fct>     <int> <date>        <int> <int>
##  1 Alab… South  East So… 4.89e6 2020-12-11   288775  4086
##  2 Alab… South  East So… 4.89e6 2020-12-11   288775  4086
##  3 Alab… South  East So… 4.89e6 2020-12-11   288775  4086
##  4 Alab… South  East So… 4.89e6 2020-12-11   288775  4086
##  5 Alab… South  East So… 4.89e6 2020-12-11   288775  4086
##  6 Alab… South  East So… 4.89e6 2020-12-11   288775  4086
##  7 Alab… South  East So… 4.89e6 2020-12-11   288775  4086
##  8 Alab… South  East So… 4.89e6 2020-12-11   288775  4086
##  9 Alab… South  East So… 4.89e6 2020-12-11   288775  4086
## 10 Alab… South  East So… 4.89e6 2020-12-11   288775  4086
## # … with 5,049,515 more rows, and 4 more variables:
## #   long <dbl>, lat <dbl>, group <dbl>, order <int>
…
