Chapter 10 Time Series Analysis of Infectious Disease Data | Statistical Learning of Infectious Disease Data Analytics
…
The Forecasting: Principles and Practices online textbook provides an introduction to time series forecasting using fable.

10.2 An Introduction to Time Series Analysis

Time series is a set of observations recorded sequentially. The first thing to do in any time series analysis task is to plot the data. Graphs enable many features of the data to be visualized, including patterns, unusual observations, changes over time, and relationships between variables. The features that are seen in plots of the data must then be incorporated, as much as possible, into the forecasting methods to be used. Just as the type of data determines what forecasting method to use, it also determines what graphs are appropriate. But before we produce graphs, we need to set up our time series in R.

10.2.1 “tsibble” objects

A time series can be thought of as a list of numbers, along with some information about what times those numbers were recorded. This information can be stored as a “tsibble” object in R. Beyond the tibble-like representation, key comprised of single or multiple variables is introduced to uniquely identify observational units over time (index). Each observation should be uniquely identified by index and key in a valid “tsibble” object.

Take the state.long data for example,

state.long

## # A tibble: 15,925 x 7
##    State  Region Division      pop DATE       Infected Death
##    <fct>  <fct>  <fct>       <int> <date>        <int> <int>
##  1 Alaba… South  East Sout… 4.89e6 2020-12-11   288775  4086
##  2 Alaba… South  East Sout… 4.89e6 2020-12-10   284922  4034
##  3 Alaba… South  East Sout… 4.89e6 2020-12-09   280187  3985
##  4 Alaba… South  East Sout… 4.89e6 2020-12-08   276665  3940
##  5 Alaba… South  East Sout… 4.89e6 2020-12-07   272228  3891
##  6 Alaba… South  East Sout… 4.89e6 2020-12-06   269877  3888
##  7 Alaba… South  East Sout… 4.89e6 2020-12-05   267589  3876
##  8 Alaba… South  East Sout… 4.89e6 2020-12-04   264199  3831
##  9 Alaba… South  East Sout… 4.89e6 2020-12-03   260359  3776
## 10 Alaba… South  East Sout… 4.89e6 2020-12-02   256828  3711
## # … with 15,915 more rows

We can turn this into a “tsibble” object using the as_tsibble() function:

state.ts <- as_tsibble(state.long, key = State) 
## Using `DATE` as index variable.
state.ts
## # A tsibble: 15,925 x 7 [1D]
## # Key:       State [49]
##    State  Region Division      pop DATE       Infected Death
##    <fct>  <fct>  <fct>       <int> <date>        <int> <int>
##  1 Alaba… South  East Sout… 4.89e6 2020-01-22        0     0
##  2 Alaba… South  East Sout… 4.89e6 2020-01-23        0     0
##  3 Alaba… South  East Sout… 4.89e6 2020-01-24        0     0
##  4 Alaba… South  East Sout… 4.89e6 2020-01-25        0     0
##  5 Alaba… South  East Sout… 4.89e6 2020-01-26        0     0
##  6 Alaba… South  East Sout… 4.89e6 2020-01-27        0     0
##  7 Alaba… South  East Sout… 4.89e6 2020-01-28        0     0
##  8 Alaba… South  East Sout… 4.89e6 2020-01-29        0     0
##  9 Alaba… South  East Sout… 4.89e6 2020-01-30        0     0
## 10 Alaba… South  East Sout… 4.89e6 2020-01-31        0     0
## # … with 15,915 more rows
…
state.ts <- as_tsibble(state.long, key = State) %>%
  group_by(State) %>%
  mutate(Infected = Infected/1000) %>%
  mutate(YDA_Infected = lag(Infected, order_by = DATE)) %>%
  mutate(YDA_Death = lag(Death, order_by = DATE)) %>%
  mutate(Y.Infected = Infected - YDA_Infected) %>%
  mutate(Y.Death = Death - YDA_Death) %>%
  dplyr::filter(!is.na(Y.Infected)) %>%
  dplyr::filter(!is.na(Y.Death)) %>%
  dplyr::select(-c(YDA_Infected, YDA_Death))
## Using `DATE` as index variable.

state.ts 
## # A tsibble: 15,876 x 9 [1D]
## # Key:       State [49]
## # Groups:    State [49]
##    State Region Division    pop DATE       Infected Death
##    <fct> <fct>  <fct>     <int> <date>        <dbl> <int>
##  1 Alab… South  East So… 4.89e6 2020-01-23        0     0
##  2 Alab… South  East So… 4.89e6 2020-01-24        0     0
##  3 Alab… South  East So… 4.89e6 2020-01-25        0     0
##  4 Alab… South  East So… 4.89e6 2020-01-26        0     0
##  5 Alab… South  East So… 4.89e6 2020-01-27        0     0
##  6 Alab… South  East So… 4.89e6 2020-01-28        0     0
##  7 Alab… South  East So… 4.89e6 2020-01-29        0     0
##  8 Alab… South  East So… 4.89e6 2020-01-30        0     0
##  9 Alab… South  East So… 4.89e6 2020-01-31        0     0
## 10 Alab… South  East So… 4.89e6 2020-02-01        0     0
## # … with 15,866 more rows, and 2 more variables:
## #   Y.Infected <dbl>, Y.Death <int>

This tsibble use the mutate() to create two extra variables: Y.Infected and Y.Death, which are the daily new infected count and the daily new death count for each state.

We can use the filter() function to extract the data for the state of Florida, for example:

Florida.ts <- state.ts %>%
  dplyr::filter(State == "Florida")

Next, we can simplify the resulting object by selecting five variables we will need in subsequent analysis.

Florida.ts <- Florida.ts %>% 
  dplyr::select(Infected, Death, Y.Infected, Y.Death)
## Adding missing grouping variables: `State`
Florida.ts
## # A tsibble: 324 x 6 [1D]
## # Key:       State [1]
## # Groups:    State [1]
##    State   Infected Death Y.Infected Y.Death DATE      
##    <fct>      <dbl> <int>      <dbl>   <int> <date>    
##  1 Florida        0     0          0       0 2020-01-23
##  2 Florida        0     0          0       0 2020-01-24
##  3 Florida        0     0          0       0 2020-01-25
##  4 Florida        0     0          0       0 2020-01-26
##  5 Florida        0     0          0       0 2020-01-27
##  6 Florida        0     0          0       0 2020-01-28
##  7 Florida        0     0          0       0 2020-01-29
##  8 Florida        0     0          0       0 2020-01-30
##  9 Florida        0     0          0       0 2020-01-31
## 10 Florida        0     0          0       0 2020-02-01
## # … with 314 more rows
…
10.5 Residual Diagnostics and Accuracy Evaluation

10.5.1 Residual diagnostics

The fitted values and residuals from a model can be obtained using the augment() function. In the above example, we saved the fitted models as beer_fit. So we can simply apply augment() to this object to compute the fitted values and residuals for all models.

augment(death_lmfit)

## # A tsibble: 324 x 7 [1D]
## # Key:       State, .model [1]
##    State  .model    DATE       Y.Death .fitted .resid .innov
##    <fct>  <chr>     <date>       <int>   <dbl>  <dbl>  <dbl>
##  1 Flori… TSLM(Y.D… 2020-01-23       0    4.66  -4.66  -4.66
##  2 Flori… TSLM(Y.D… 2020-01-24       0    5.01  -5.01  -5.01
##  3 Flori… TSLM(Y.D… 2020-01-25       0    5.35  -5.35  -5.35
##  4 Flori… TSLM(Y.D… 2020-01-26       0    5.70  -5.70  -5.70
##  5 Flori… TSLM(Y.D… 2020-01-27       0    6.05  -6.05  -6.05
##  6 Flori… TSLM(Y.D… 2020-01-28       0    6.40  -6.40  -6.40
##  7 Flori… TSLM(Y.D… 2020-01-29       0    6.75  -6.75  -6.75
##  8 Flori… TSLM(Y.D… 2020-01-30       0    7.09  -7.09  -7.09
##  9 Flori… TSLM(Y.D… 2020-01-31       0    7.44  -7.44  -7.44
## 10 Flori… TSLM(Y.D… 2020-02-01       0    7.79  -7.79  -7.79
## # … with 314 more rows
…
These functions provide fast and shorthand for rolling over a tsibble by observations. They all return a tsibble including a new column .id as part of the key. The output dimension will increase considerably with slide_tsibble() and stretch_tsibble(), which is likely to run out of memory when the data is large.

For time series cross-validation, stretching windows are most commonly used.

# Split training and test using stretching window
Florida.train <- Florida.ts %>%
  filter_index("2020-04-01" ~ "2020-11-27") %>%
  # Stretch with a minimum length of 60
  # growing by 7 each step  
  stretch_tsibble(.init = 60, .step = 7) %>%
  relocate(DATE, State, .id)

Florida.train

## # A tsibble: 3,835 x 7 [1D]
## # Key:       State, .id [26]
## # Groups:    State [1]
##    DATE       State    .id Infected Death Y.Infected Y.Death
##    <date>     <fct>  <int>    <dbl> <int>      <dbl>   <int>
##  1 2020-04-01 Flori…     1     6.95    85      0.214       0
##  2 2020-04-02 Flori…     1     9.00   144      2.05       59
##  3 2020-04-03 Flori…     1    10.3    163      1.26       19
##  4 2020-04-04 Flori…     1    11.5    194      1.28       31
##  5 2020-04-05 Flori…     1    12.3    221      0.81       27
##  6 2020-04-06 Flori…     1    13.3    235      0.971      14
##  7 2020-04-07 Flori…     1    14.5    254      1.23       19
##  8 2020-04-08 Flori…     1    15.5    309      0.908      55
##  9 2020-04-09 Flori…     1    16.4    353      0.911      44
## 10 2020-04-10 Flori…     1    17.5    390      1.17       37
## # … with 3,825 more rows

# Training set model fit
FL.fit <- Florida.train %>%
  model(
      `ETS` = ETS(Y.Death 
                  ~ error("A") + trend("A") + season("A")),  
      `ARIMA` = ARIMA(Y.Death ~ 1 + pdq(1,0,1) + PDQ(0,1,1))
    )  

# Training set accuracy
FL.fit %>% accuracy()

## # A tibble: 52 x 12
##    State    .id .model .type      ME  RMSE   MAE   MPE  MAPE
##    <fct>  <int> <chr>  <chr>   <dbl> <dbl> <dbl> <dbl> <dbl>
##  1 Flori…     1 ETS    Train… -2.25   15.7  12.4  -Inf   Inf
##  2 Flori…     1 ARIMA  Train…  0.984  17.5  13.1  -Inf   Inf
##  3 Flori…     2 ETS    Train… -1.55   15.8  12.2  -Inf   Inf
##  4 Flori…     2 ARIMA  Train…  1.28   16.9  12.8  -Inf   Inf
##  5 Flori…     3 ETS    Train… -1.16   15.5  11.9  -Inf   Inf
##  6 Flori…     3 ARIMA  Train…  1.33   16.2  12.4  -Inf   Inf
##  7 Flori…     4 ETS    Train… -1.33   14.9  11.4  -Inf   Inf
##  8 Flori…     4 ARIMA  Train…  1.14   16.0  12.0   Inf   Inf
##  9 Flori…     5 ETS    Train… -1.26   14.5  10.8  -Inf   Inf
## 10 Flori…     5 ARIMA  Train…  1.19   15.5  11.7   Inf   Inf
## # … with 42 more rows, and 3 more variables: MASE <dbl>,
## #   RMSSE <dbl>, ACF1 <dbl>
…
